[gd_scene load_steps=3 format=2]

[ext_resource path="res://objects/boy/player.png" type="Texture" id=1]

[sub_resource type="Animation" id=1]
resource_name = "default"
length = 0.8
loop = true
tracks/0/type = "value"
tracks/0/path = NodePath(".:frame")
tracks/0/interp = 1
tracks/0/loop_wrap = true
tracks/0/imported = false
tracks/0/enabled = true
tracks/0/keys = {
"times": PoolRealArray( 0, 0.2, 0.4, 0.6 ),
"transitions": PoolRealArray( 1, 1, 1, 1 ),
"update": 1,
"values": [ 13, 14, 15, 16 ]
}

[node name="jason_intro_sprite" type="Sprite"]
position = Vector2( 512, 280 )
scale = Vector2( 6, 6 )
texture = ExtResource( 1 )
vframes = 7
hframes = 8
frame = 13

[node name="AnimationPlayer" type="AnimationPlayer" parent="."]
autoplay = "default"
anims/default = SubResource( 1 )
