[gd_scene load_steps=7 format=2]

[ext_resource path="res://assets/fonts/8bitOperatorPlus8-Bold.ttf" type="DynamicFontData" id=1]
[ext_resource path="res://assets/logos/dragonshield_color.png" type="Texture" id=2]
[ext_resource path="res://assets/music/Juhani Junkala [Chiptune Adventures] 1. Stage 1.ogg" type="AudioStream" id=3]
[ext_resource path="res://scenes/texts/text.gd" type="Script" id=4]

[sub_resource type="DynamicFont" id=1]
size = 64
font_data = ExtResource( 1 )

[sub_resource type="Animation" id=2]
resource_name = "default"
length = 10.0
tracks/0/type = "bezier"
tracks/0/path = NodePath("dragonshield_color:modulate:a")
tracks/0/interp = 1
tracks/0/loop_wrap = true
tracks/0/imported = false
tracks/0/enabled = true
tracks/0/keys = {
"points": PoolRealArray( 0, -0.25, 0, 0.25, 0, 1, -0.25, 0, 0.25, 0, 1, -0.25, 0, 0.25, 0, 0, -0.25, 0, 0.25, 0 ),
"times": PoolRealArray( 0.7, 1.7, 6.7, 7.7 )
}
tracks/1/type = "bezier"
tracks/1/path = NodePath("Label:modulate:a")
tracks/1/interp = 1
tracks/1/loop_wrap = true
tracks/1/imported = false
tracks/1/enabled = true
tracks/1/keys = {
"points": PoolRealArray( 0, -0.25, 0, 0.25, 0, 0, -0.25, 0, 0.25, 0, 1, -0.25, 0, 0.25, 0, 1, -0.25, 0, 0.25, 0, 0, -0.25, 0, 0.25, 0 ),
"times": PoolRealArray( 0.7, 1.7, 2.7, 5.7, 6.7 )
}
tracks/2/type = "bezier"
tracks/2/path = NodePath("music:volume_db")
tracks/2/interp = 1
tracks/2/loop_wrap = true
tracks/2/imported = false
tracks/2/enabled = true
tracks/2/keys = {
"points": PoolRealArray( -80, -0.25, 0, 0.25, 0, -10, -0.25, 0, 0.25, 0, -10, -0.25, 0, 0.25, 0, -80, -0.25, 0, 0.25, 0 ),
"times": PoolRealArray( 0, 0.7, 7.7, 9.7 )
}
tracks/3/type = "method"
tracks/3/path = NodePath(".")
tracks/3/interp = 1
tracks/3/loop_wrap = true
tracks/3/imported = false
tracks/3/enabled = true
tracks/3/keys = {
"times": PoolRealArray( 10 ),
"transitions": PoolRealArray( 1 ),
"values": [ {
"args": [  ],
"method": "next"
} ]
}

[node name="text_01" type="Node2D"]
script = ExtResource( 4 )
next_scene = "res://scenes/cut_scenes/paula_intro.tscn"

[node name="dragonshield_color" type="Sprite" parent="."]
modulate = Color( 1, 1, 1, 0 )
position = Vector2( 512, 144 )
scale = Vector2( 0.5, 0.5 )
texture = ExtResource( 2 )

[node name="Label" type="Label" parent="."]
modulate = Color( 1, 1, 1, 0 )
margin_left = 64.0
margin_top = 312.0
margin_right = 960.0
margin_bottom = 576.0
custom_fonts/font = SubResource( 1 )
text = "On a sunny day at
The Kingdom of Comics"
align = 1
valign = 1
autowrap = true
uppercase = true
__meta__ = {
"_edit_use_anchors_": false
}

[node name="music" type="AudioStreamPlayer" parent="."]
stream = ExtResource( 3 )
volume_db = -80.0
autoplay = true

[node name="AnimationPlayer" type="AnimationPlayer" parent="."]
autoplay = "default"
anims/default = SubResource( 2 )
